{
    "method": "orderDelete",
    "store_order_id": 6667,
    "retailer_store_code": "default",
    "store_token": "8Z1C+uJNnoM6",
    "store_authentication": "7l3MEPeGTU1e",
    "delete_user_order": 1
}
