{
    "method": "retailerConfigurations",
    "retailer_id": 150,
    "retailer_store_code": "retailer_store_code",
    "store_token": "5LIH1TaW8ewd",
    "store_authentication": "3aa7Sgt76sz7",
    "retailerConfigurationDetails": [
        {
            "type": "global",
            "key": "taxClass",
            "value": "10",
            "retailer_id": "150"
        },
        {
            "type": "global",
            "key": "excludePostCodes",
            "value": "DE4 3ED",
            "retailer_id": "150"
        },
        {
            "type": "themes",
            "key": "basketColour",
            "value": "#ec0000",
            "retailer_id": "150"
        },
        {
            "type": "themes",
            "key": "contactUrl",
            "value": "contact.com",
            "retailer_id": "150"
        },
        {
            "type": "themes",
            "key": "logoUrl",
            "value": "testlogo",
            "retailer_id": "150"
        },
        {
            "type": "themes",
            "key": "themeColour",
            "value": "#116d96",
            "retailer_id": "150"
        },
        {
            "type": "instalments",
            "key": "3",
            "value": "75",
            "retailer_id": "150"
        },
        {
            "type": "instalments",
            "key": "4",
            "value": "160",
            "retailer_id": "150"
        },
        {
            "type": "instalments",
            "key": "5",
            "value": "200",
            "retailer_id": "150"
        },
        {
            "type": "instalments",
            "key": "9",
            "value": "699",
            "retailer_id": "150"
        },
        {
            "type": "instalments",
            "key": "12",
            "value": "999",
            "retailer_id": "150"
        }
    ]
}
